{
  "politicians": [
    {
      "id": "5c4ada0f6d9a861777a1160b",
      "titular": " Vicente Castelló Vicedo",
      "partido": "AIA-Compromis",
      "partidoParaFiltro": "Compromís",
      "genero": "Hombre",
      "cargo": "Alcalde",
      "cargoParaFiltro": "Alcalde",
      "institucion": "Ayuntamiento de Agost",
      "ccaa": "Comunidad Valenciana",
      "sueldoBase": 37260,
      "complementosSueldo": "",
      "pagasExtrasSueldo": "",
      "otrasDietas": 0,
      "trieniosSueldo": "",
      "retribucionAnual": 37260,
      "retribucionMensual": 2661.43,
      "observaciones": "Dedicación Exclusiva"
    },
    {
      "id": "5c4ada0f6d9a861777a1160d",
      "titular": "Josep Manel Francés i Reig",
      "partido": "Junts per Agres",
      "partidoParaFiltro": "Otros partidos",
      "genero": "Hombre",
      "cargo": "Alcalde",
      "cargoParaFiltro": "Alcalde",
      "institucion": "Ayuntamiento de Agres",
      "ccaa": "Comunidad Valenciana",
      "sueldoBase": 8467.36,
      "complementosSueldo": "",
      "pagasExtrasSueldo": "",
      "otrasDietas": 0,
      "trieniosSueldo": "",
      "retribucionAnual": 8467.36,
      "retribucionMensual": 604.81,
      "observaciones": "Dedicación Parcial"
    },
    {
      "id": "5c4ada0f6d9a861777a1160f",
      "titular": "María Isabel Molina Vicens",
      "partido": "Compromís",
      "partidoParaFiltro": "Compromís",
      "genero": "Mujer",
      "cargo": "Alcaldesa",
      "cargoParaFiltro": "Alcalde",
      "institucion": "Ayuntamiento de Alcalalí",
      "ccaa": "Comunidad Valenciana",
      "sueldoBase": 8833.26,
      "complementosSueldo": "",
      "pagasExtrasSueldo": "",
      "otrasDietas": 0,
      "trieniosSueldo": "",
      "retribucionAnual": 8833.26,
      "retribucionMensual": 630.95,
      "observaciones": "Dedicación Parcial"
    },
    {
      "id": "5c4ada0f6d9a861777a11611",
      "titular": "Arturo Abad Ferrer",
      "partido": "Partido Popular",
      "partidoParaFiltro": "Partido Popular",
      "genero": "Hombre",
      "cargo": "Alcalde",
      "cargoParaFiltro": "Alcalde",
      "institucion": "Ayuntamiento de Alcocer de Planes",
      "ccaa": "Comunidad Valenciana",
      "sueldoBase": 0,
      "complementosSueldo": "",
      "pagasExtrasSueldo": "",
      "otrasDietas": 250,
      "trieniosSueldo": "",
      "retribucionAnual": 250,
      "retribucionMensual": 17.86,
      "observaciones": "Sin dedicación"
    },
    {
      "id": "5c4ada0f6d9a861777a11613",
      "titular": "Francisco Miguel Fenollar Iváñez",
      "partido": "PSOE",
      "partidoParaFiltro": "PSOE",
      "genero": "Hombre",
      "cargo": "Alcalde",
      "cargoParaFiltro": "Alcalde",
      "institucion": "Ayuntamiento de Alcoleja",
      "ccaa": "Comunidad Valenciana",
      "sueldoBase": 0,
      "complementosSueldo": "",
      "pagasExtrasSueldo": "",
      "otrasDietas": 150,
      "trieniosSueldo": "",
      "retribucionAnual": 150,
      "retribucionMensual": 10.71,
      "observaciones": "Sin dedicación"
    },
    {
      "id": "5c4ada0f6d9a861777a11615",
      "titular": "Antonio Alfonso Francés Pérez",
      "partido": "PSOE",
      "partidoParaFiltro": "PSOE",
      "genero": "Hombre",
      "cargo": "Alcalde",
      "cargoParaFiltro": "Alcalde",
      "institucion": "Ayuntamiento de ALCOY/ALCOI",
      "ccaa": "Comunidad Valenciana",
      "sueldoBase": 57501.59,
      "complementosSueldo": "",
      "pagasExtrasSueldo": "",
      "otrasDietas": 0,
      "trieniosSueldo": "",
      "retribucionAnual": 57501.59,
      "retribucionMensual": 4107.26,
      "observaciones": "Dedicación Exclusiva"
    },
    {
      "id": "5c4ada0f6d9a861777a11617",
      "titular": "Vicente Arques Cortes",
      "partido": "PSOE",
      "partidoParaFiltro": "PSOE",
      "genero": "Hombre",
      "cargo": "Alcalde",
      "cargoParaFiltro": "Alcalde",
      "institucion": "Ayuntamiento de L' Alfàs del Pi",
      "ccaa": "Comunidad Valenciana",
      "sueldoBase": 0,
      "complementosSueldo": "",
      "pagasExtrasSueldo": "",
      "otrasDietas": 11813,
      "trieniosSueldo": "",
      "retribucionAnual": 11813,
      "retribucionMensual": 843.79,
      "observaciones": "Sin dedicación"
    },
    {
      "id": "5c4ada0f6d9a861777a11619",
      "titular": "Manuel Iván Ros Rodes",
      "partido": "PSOE",
      "partidoParaFiltro": "PSOE",
      "genero": "Hombre",
      "cargo": "Alcalde",
      "cargoParaFiltro": "Alcalde",
      "institucion": "Ayuntamiento de  Algorfa",
      "ccaa": "Comunidad Valenciana",
      "sueldoBase": 35000,
      "complementosSueldo": "",
      "pagasExtrasSueldo": "",
      "otrasDietas": 0,
      "trieniosSueldo": "",
      "retribucionAnual": 35000,
      "retribucionMensual": 2500,
      "observaciones": "Dedicación Exclusiva"
    },
    {
      "id": "5c4ada0f6d9a861777a1161b",
      "titular": "Mª Carmen Jover Pérez",
      "partido": "Partido Popular",
      "partidoParaFiltro": "Partido Popular",
      "genero": "Mujer",
      "cargo": "Alcaldesa",
      "cargoParaFiltro": "Alcalde",
      "institucion": "Ayuntamiento de  Algueña",
      "ccaa": "Comunidad Valenciana",
      "sueldoBase": 26779.9,
      "complementosSueldo": "",
      "pagasExtrasSueldo": "",
      "otrasDietas": 0,
      "trieniosSueldo": "",
      "retribucionAnual": 26779.9,
      "retribucionMensual": 1912.85,
      "observaciones": "Dedicación Exclusiva"
    },
    {
      "id": "5c4ada0f6d9a861777a1161d",
      "titular": "Luis José Barcala Sierra",
      "partido": "Partido Popular",
      "partidoParaFiltro": "Partido Popular",
      "genero": "Hombre",
      "cargo": "Alcalde",
      "cargoParaFiltro": "Alcalde",
      "institucion": "Ayuntamiento de  ALICANTE/ALACANT",
      "ccaa": "Comunidad Valenciana",
      "sueldoBase": 66004.62,
      "complementosSueldo": "",
      "pagasExtrasSueldo": "",
      "otrasDietas": 0,
      "trieniosSueldo": "",
      "retribucionAnual": 66004.62,
      "retribucionMensual": 4714.62,
      "observaciones": "Dedicación Exclusiva"
    }
  ],
  "meta": {
    "page": 1,
    "itemsPerPage": 10,
    "totalPages": 5,
    "totalItems": 50
  }
}